%YAML 1.1
%TAG !u! tag:unity3d.com,2011:
--- !u!221 &22100000
AnimatorOverrideController:
  m_ObjectHideFlags: 0
  m_PrefabParentObject: {fileID: 0}
  m_PrefabInternal: {fileID: 0}
  m_Name: IceGhost
  m_Controller: {fileID: 9100000, guid: c8bec8357e72bbb40b65b4562889f883, type: 2}
  m_Clips:
  - m_OriginalClip: {fileID: 7400000, guid: 50ef1bb36f2eed9469c03d1cda33600a, type: 2}
    m_OverrideClip: {fileID: 7400000, guid: aa2eb3e75465db0499cfc1b5e0465561, type: 2}
  - m_OriginalClip: {fileID: 7400000, guid: 8c65e5edfd96a0140a1e29e28d79bfda, type: 2}
    m_OverrideClip: {fileID: 7400000, guid: aa2eb3e75465db0499cfc1b5e0465561, type: 2}
  - m_OriginalClip: {fileID: 7400000, guid: a18d2f1cc63eaea41a3db1037442ae28, type: 2}
    m_OverrideClip: {fileID: 7400000, guid: ee707f12b111b3140a2154e97b705ad9, type: 2}
  - m_OriginalClip: {fileID: 7400000, guid: e4fe47e4ba8d7784ca6c4ff951f276ab, type: 2}
    m_OverrideClip: {fileID: 7400000, guid: 7fbb2a0081a307e4da7aac3d576df2c9, type: 2}
