%YAML 1.1
%TAG !u! tag:unity3d.com,2011:
--- !u!221 &22100000
AnimatorOverrideController:
  m_ObjectHideFlags: 0
  m_PrefabParentObject: {fileID: 0}
  m_PrefabInternal: {fileID: 0}
  m_Name: Werewolf
  m_Controller: {fileID: 9100000, guid: c8bec8357e72bbb40b65b4562889f883, type: 2}
  m_Clips:
  - m_OriginalClip: {fileID: 7400000, guid: 50ef1bb36f2eed9469c03d1cda33600a, type: 2}
    m_OverrideClip: {fileID: 7400000, guid: 9872070e0bd72e843a8e75e0b134d66b, type: 2}
  - m_OriginalClip: {fileID: 7400000, guid: 8c65e5edfd96a0140a1e29e28d79bfda, type: 2}
    m_OverrideClip: {fileID: 7400000, guid: 020cda02d91601e44ab670307412f8db, type: 2}
  - m_OriginalClip: {fileID: 7400000, guid: a18d2f1cc63eaea41a3db1037442ae28, type: 2}
    m_OverrideClip: {fileID: 7400000, guid: e7f7a11317dc16e41bebfcaf4c44a63a, type: 2}
  - m_OriginalClip: {fileID: 7400000, guid: e4fe47e4ba8d7784ca6c4ff951f276ab, type: 2}
    m_OverrideClip: {fileID: 7400000, guid: e4fe47e4ba8d7784ca6c4ff951f276ab, type: 2}
  - m_OriginalClip: {fileID: 7400000, guid: b28c1761b556d4d4d8502e4486bd63d0, type: 2}
    m_OverrideClip: {fileID: 7400000, guid: b28c1761b556d4d4d8502e4486bd63d0, type: 2}
