%YAML 1.1
%TAG !u! tag:unity3d.com,2011:
--- !u!114 &11400000
MonoBehaviour:
  m_ObjectHideFlags: 0
  m_PrefabParentObject: {fileID: 0}
  m_PrefabInternal: {fileID: 0}
  m_GameObject: {fileID: 0}
  m_Enabled: 1
  m_EditorHideFlags: 0
  m_Script: {fileID: 11500000, guid: 3ca00c621a490be4a833e1cc21967bcc, type: 3}
  m_Name: BackButton
  m_EditorClassIdentifier: 
  Normal: {fileID: 21300000, guid: d983310e98dcdd94db89667029a97819, type: 3}
  Pressed: {fileID: 21300000, guid: 5f0d888feabc9894aa1756c3a5e4c54d, type: 3}
  Highlighted: {fileID: 21300000, guid: d983310e98dcdd94db89667029a97819, type: 3}
  Disabled: {fileID: 21300000, guid: d983310e98dcdd94db89667029a97819, type: 3}
