%YAML 1.1
%TAG !u! tag:unity3d.com,2011:
--- !u!114 &11400000
MonoBehaviour:
  m_ObjectHideFlags: 0
  m_PrefabParentObject: {fileID: 0}
  m_PrefabInternal: {fileID: 0}
  m_GameObject: {fileID: 0}
  m_Enabled: 1
  m_EditorHideFlags: 0
  m_Script: {fileID: 11500000, guid: 3ca00c621a490be4a833e1cc21967bcc, type: 3}
  m_Name: MusicMutedButton
  m_EditorClassIdentifier: 
  Normal: {fileID: 21300000, guid: 2d76372866db8864096c0906a06d1fe0, type: 3}
  Pressed: {fileID: 21300000, guid: 293ca5c432db183469ba19b47449ab6f, type: 3}
  Highlighted: {fileID: 21300000, guid: 2d76372866db8864096c0906a06d1fe0, type: 3}
  Disabled: {fileID: 21300000, guid: 2d76372866db8864096c0906a06d1fe0, type: 3}
