%YAML 1.1
%TAG !u! tag:unity3d.com,2011:
--- !u!221 &22100000
AnimatorOverrideController:
  m_ObjectHideFlags: 0
  m_PrefabParentObject: {fileID: 0}
  m_PrefabInternal: {fileID: 0}
  m_Name: IceTroll
  m_Controller: {fileID: 9100000, guid: c8bec8357e72bbb40b65b4562889f883, type: 2}
  m_Clips:
  - m_OriginalClip: {fileID: 7400000, guid: 50ef1bb36f2eed9469c03d1cda33600a, type: 2}
    m_OverrideClip: {fileID: 7400000, guid: 6648cb73c090c5a4d90d207b6bb366dd, type: 2}
  - m_OriginalClip: {fileID: 7400000, guid: 8c65e5edfd96a0140a1e29e28d79bfda, type: 2}
    m_OverrideClip: {fileID: 7400000, guid: 4c44b8caa86b25e40bf6e405ff03b2ed, type: 2}
  - m_OriginalClip: {fileID: 7400000, guid: a18d2f1cc63eaea41a3db1037442ae28, type: 2}
    m_OverrideClip: {fileID: 7400000, guid: b322507a61eb8ca4cbe29c50840749a3, type: 2}
  - m_OriginalClip: {fileID: 7400000, guid: e4fe47e4ba8d7784ca6c4ff951f276ab, type: 2}
    m_OverrideClip: {fileID: 7400000, guid: 45e2ca7e757d4994293498dc2a85a61b, type: 2}
  - m_OriginalClip: {fileID: 7400000, guid: b28c1761b556d4d4d8502e4486bd63d0, type: 2}
    m_OverrideClip: {fileID: 7400000, guid: f8d4a580113d2144d93044ba39f1bf81, type: 2}
