%YAML 1.1
%TAG !u! tag:unity3d.com,2011:
--- !u!74 &7400000
AnimationClip:
  m_ObjectHideFlags: 0
  m_PrefabParentObject: {fileID: 0}
  m_PrefabInternal: {fileID: 0}
  m_Name: Logo
  serializedVersion: 6
  m_Legacy: 0
  m_Compressed: 0
  m_UseHighQualityCurve: 1
  m_RotationCurves: []
  m_CompressedRotationCurves: []
  m_EulerCurves: []
  m_PositionCurves: []
  m_ScaleCurves: []
  m_FloatCurves: []
  m_PPtrCurves:
  - curve:
    - time: 0.016666668
      value: {fileID: 21300000, guid: b7cb048d966ceb74b9de774f5f81e8ea, type: 3}
    - time: 0.033333335
      value: {fileID: 21300000, guid: e1fd380f3ca39264989d3b70fbe918e5, type: 3}
    - time: 0.06666667
      value: {fileID: 21300000, guid: f6a1a653692235c4d826071aef14f203, type: 3}
    - time: 0.083333336
      value: {fileID: 21300000, guid: e43d2969343610e4d978ecd95c30ec19, type: 3}
    - time: 0.1
      value: {fileID: 21300000, guid: 26b6ee0204b15e147942aa17a4a016cf, type: 3}
    - time: 0.11666667
      value: {fileID: 21300000, guid: 3dd328b4eddf39e498f2f156fc2ac9b0, type: 3}
    - time: 0.15
      value: {fileID: 21300000, guid: d0277150356f17a4b94632d2306aa436, type: 3}
    - time: 0.16666667
      value: {fileID: 21300000, guid: 861b1d53f0c30534592bb5e7db6f9891, type: 3}
    - time: 0.18333334
      value: {fileID: 21300000, guid: b28f3e9cd8819d64dbfebbb22c0f893b, type: 3}
    - time: 0.2
      value: {fileID: 21300000, guid: bd40e3c881267aa4baf119cfb464dd9d, type: 3}
    - time: 0.21666667
      value: {fileID: 21300000, guid: 4daea1eb23e6e2f4c9493ed37c6e140c, type: 3}
    - time: 0.25
      value: {fileID: 21300000, guid: 8edb4d9b497028d4c8ea863a82f4dd5c, type: 3}
    - time: 0.26666668
      value: {fileID: 21300000, guid: e80a58f66bc3e274786632eace8689be, type: 3}
    - time: 0.28333333
      value: {fileID: 21300000, guid: 4efcc33da5709c049bcd7ce01aa2c5dc, type: 3}
    - time: 0.3
      value: {fileID: 21300000, guid: 70d51c280b887e84e88f02ca40f549c7, type: 3}
    - time: 0.31666666
      value: {fileID: 21300000, guid: 001ccf4081446044080a7018350f92b8, type: 3}
    - time: 0.35
      value: {fileID: 21300000, guid: 441a8883c7e60ec4fa7daeb8e80f9d0c, type: 3}
    - time: 0.36666667
      value: {fileID: 21300000, guid: 2bb12382ef8fe4d4bbcb52a240a6a755, type: 3}
    - time: 0.38333333
      value: {fileID: 21300000, guid: 1c339f5ff2728ca458153bfa49e02a51, type: 3}
    - time: 0.4
      value: {fileID: 21300000, guid: e558a9bc5ca8e9c48b3ba585c926b0c0, type: 3}
    - time: 0.43333334
      value: {fileID: 21300000, guid: 76758ecf98de5a745b96296c716f5280, type: 3}
    - time: 0.45
      value: {fileID: 21300000, guid: 7ce347ec87d40e745b5e7a2a933daf4d, type: 3}
    - time: 0.46666667
      value: {fileID: 21300000, guid: 64286b08d15220d4780f458c3c6144a6, type: 3}
    - time: 0.48333332
      value: {fileID: 21300000, guid: ae6af4bb9be588d45a130fa4093629bc, type: 3}
    - time: 0.5
      value: {fileID: 21300000, guid: e2ce2aabdc18cdb4abafcdcd64cac5e0, type: 3}
    - time: 0.53333336
      value: {fileID: 21300000, guid: 740dbe2b33fd62047b578fcee58d9a0e, type: 3}
    - time: 0.55
      value: {fileID: 21300000, guid: e70b2d5a387a79e428dcea5f67592b80, type: 3}
    - time: 0.56666666
      value: {fileID: 21300000, guid: 5f208c4bc5ea90d47a1069800936934f, type: 3}
    - time: 0.5833333
      value: {fileID: 21300000, guid: 57275511c8d74fd4c803e03505e909b3, type: 3}
    - time: 0.6
      value: {fileID: 21300000, guid: 9c0214f3c212902478cd55dc5d22f846, type: 3}
    - time: 0.6333333
      value: {fileID: 21300000, guid: f943c0c3982f5c44b819565b2fe4ba7e, type: 3}
    - time: 0.65
      value: {fileID: 21300000, guid: 92ee6734ea67d8b4f94764ba44fd1b74, type: 3}
    - time: 0.6666667
      value: {fileID: 21300000, guid: 988d9e112e1e94e4bacf3338867125e7, type: 3}
    - time: 0.68333334
      value: {fileID: 21300000, guid: 0464558539a62e74ca8cba0d7da0993e, type: 3}
    - time: 0.71666664
      value: {fileID: 21300000, guid: 27c3052cf39f8e841b1c48eb2abd94e3, type: 3}
    - time: 0.73333335
      value: {fileID: 21300000, guid: e7ca78bfe4644c04eb07c3e8f60ba0b4, type: 3}
    - time: 0.75
      value: {fileID: 21300000, guid: f8c49ee73c43d8a4f86c59873b83504e, type: 3}
    - time: 0.76666665
      value: {fileID: 21300000, guid: d3e6d3873adf2984391c42b9219aa860, type: 3}
    - time: 0.78333336
      value: {fileID: 21300000, guid: b1d35a4d0d9e60944905643c8bc8aabb, type: 3}
    - time: 0.81666666
      value: {fileID: 21300000, guid: 9cb93133137ddee4cb716820a34adb64, type: 3}
    - time: 0.8333333
      value: {fileID: 21300000, guid: 0fcf1c5f79645b94cbc682cfc56d8010, type: 3}
    - time: 0.85
      value: {fileID: 21300000, guid: 8bbe6e84340462d4d8331a18fc659984, type: 3}
    - time: 0.8666667
      value: {fileID: 21300000, guid: 24a35f4c7c4cb8449b6a280fdd9ad2d1, type: 3}
    - time: 0.8833333
      value: {fileID: 21300000, guid: afa717ef69e17954691807ae831cd1b0, type: 3}
    - time: 0.9166667
      value: {fileID: 21300000, guid: ba64f940367b2e84da3c312bb1968f49, type: 3}
    - time: 0.93333334
      value: {fileID: 21300000, guid: 163ad7fc462d38340bbe42ab1f079f7b, type: 3}
    - time: 0.95
      value: {fileID: 21300000, guid: 9ce4bb40b45ae5546a5ebc0d949368f4, type: 3}
    - time: 0.96666664
      value: {fileID: 21300000, guid: d1adfac422f7eb94fa083fb57e105ef0, type: 3}
    - time: 1
      value: {fileID: 21300000, guid: b74def3971ed6b04dbeab7b15a8fc6f0, type: 3}
    - time: 1.0166667
      value: {fileID: 21300000, guid: c67623910acf06f4cb8e36d0642c86aa, type: 3}
    - time: 1.0333333
      value: {fileID: 21300000, guid: 05254d909e4621544baa0c8e5f0cf00d, type: 3}
    - time: 1.05
      value: {fileID: 21300000, guid: 0481f8006059ba647a5b2e4107f54b73, type: 3}
    - time: 1.0666667
      value: {fileID: 21300000, guid: ff1fe92593f6ddd4b9d9c42e058b4d40, type: 3}
    - time: 1.1
      value: {fileID: 21300000, guid: b8fd222d78977e64abe37430b261c464, type: 3}
    - time: 1.1166667
      value: {fileID: 21300000, guid: 73169d668a370494db4411ac33ea84cc, type: 3}
    - time: 1.1333333
      value: {fileID: 21300000, guid: c1572c4119ae0b84fbf6ac00fa767387, type: 3}
    - time: 1.15
      value: {fileID: 21300000, guid: 93d451b87b25a6e458a68b080b59ebe7, type: 3}
    - time: 1.1666666
      value: {fileID: 21300000, guid: c7d9a18fa5e31714b98bb7d64f79f41e, type: 3}
    - time: 1.2
      value: {fileID: 21300000, guid: db9e5291792eda846941e5382406bb36, type: 3}
    - time: 1.2166667
      value: {fileID: 21300000, guid: dc5bc236f03e4404eb086fe3e8d416ea, type: 3}
    - time: 1.2333333
      value: {fileID: 21300000, guid: 8af62bdd40f93be40af251d928dc6a62, type: 3}
    - time: 1.25
      value: {fileID: 21300000, guid: cb75c0e0b0807be42ac6eaf6bd8a4c0a, type: 3}
    - time: 1.2833333
      value: {fileID: 21300000, guid: 02945f92b00b74040adb96ede6fc39c9, type: 3}
    - time: 1.3
      value: {fileID: 21300000, guid: 7a4a182cdeab0a440b0969a05c0e9a66, type: 3}
    - time: 1.3166667
      value: {fileID: 21300000, guid: 9f5056b83893ecc4aa482eb877cdae9c, type: 3}
    - time: 1.3333334
      value: {fileID: 21300000, guid: 9ed1a98d7b845084fa367b3f3fa1be0e, type: 3}
    - time: 1.35
      value: {fileID: 21300000, guid: a4ccb5b84221d0144aec431d62217c53, type: 3}
    - time: 1.3833333
      value: {fileID: 21300000, guid: 1ee4bc9e2cc303e49938bbbd5fde02fd, type: 3}
    - time: 1.4
      value: {fileID: 21300000, guid: 4bac1531489bbee489ef60e043fa6f04, type: 3}
    - time: 1.4166666
      value: {fileID: 21300000, guid: 5964d529f2d2ef14281954e45f5a3bdd, type: 3}
    - time: 1.4333333
      value: {fileID: 21300000, guid: 80d4419a381a2174f97e612486a9d7a2, type: 3}
    - time: 1.45
      value: {fileID: 21300000, guid: 1b6cd5d7f88a56446ac39a375c16389f, type: 3}
    - time: 1.4833333
      value: {fileID: 21300000, guid: b12a1ccaffa3060479a489cd8948c9a2, type: 3}
    - time: 1.5
      value: {fileID: 21300000, guid: b07add4356fb6914a8d54035e4ba790a, type: 3}
    - time: 1.5166667
      value: {fileID: 21300000, guid: ed2dc71bed6392b40bd4f7c7496b48de, type: 3}
    - time: 1.5333333
      value: {fileID: 21300000, guid: b365ebf9eac3ae24a81361c57b41f919, type: 3}
    - time: 1.5666667
      value: {fileID: 21300000, guid: 33c59f705c8c6fb4e95ee1f483769a3d, type: 3}
    - time: 1.5833334
      value: {fileID: 21300000, guid: 0df91c32e705a2449a19c9bbb99524a8, type: 3}
    - time: 1.6
      value: {fileID: 21300000, guid: 85e151fd512f42249a9028e30277a9fc, type: 3}
    - time: 1.6166667
      value: {fileID: 21300000, guid: 4d6c04114bd59134f96fb9449a5df79e, type: 3}
    - time: 1.6333333
      value: {fileID: 21300000, guid: 114e2ea535210f048b71222e4d7d6032, type: 3}
    - time: 1.6666666
      value: {fileID: 21300000, guid: e9513dd498c66cb4a97f4567f640244b, type: 3}
    - time: 1.6833333
      value: {fileID: 21300000, guid: a18807a7f6071d14193dd42a2e96ddc5, type: 3}
    - time: 1.7
      value: {fileID: 21300000, guid: bd104355b2f113146a249176b770efbb, type: 3}
    - time: 1.7166667
      value: {fileID: 21300000, guid: 95e7577792b389b46ad9c3e2567af430, type: 3}
    - time: 1.7333333
      value: {fileID: 21300000, guid: 5f8aaa527756b8d4b9f97150935a6d5d, type: 3}
    - time: 1.7666667
      value: {fileID: 21300000, guid: 8b18c75a5c07f80438a226c49585000f, type: 3}
    - time: 1.7833333
      value: {fileID: 21300000, guid: 1d2d22eed209ba8499a8599e242f845c, type: 3}
    - time: 1.8
      value: {fileID: 21300000, guid: 32e326ae6d2f4ee48b6c3bee44eb7bed, type: 3}
    - time: 1.8166667
      value: {fileID: 21300000, guid: 7e4c502bd63ef6e4f820543bcd24638c, type: 3}
    - time: 1.85
      value: {fileID: 21300000, guid: f0867a463e574e048b3dedf3fcc68d73, type: 3}
    - time: 1.8666667
      value: {fileID: 21300000, guid: 8cd77943ed546994b928a0fdb2dddeee, type: 3}
    - time: 1.8833333
      value: {fileID: 21300000, guid: 4ed7b5d713ccbaf41824e64d05fe53e0, type: 3}
    - time: 1.9
      value: {fileID: 21300000, guid: 5c173eb5fa2df02468693ce0651f53f9, type: 3}
    - time: 1.9166666
      value: {fileID: 21300000, guid: 62df8c444d0b8aa409f144d8ca6fbb09, type: 3}
    - time: 1.95
      value: {fileID: 21300000, guid: 97a073615a3604e49b43712fd65c1af8, type: 3}
    - time: 1.9666667
      value: {fileID: 21300000, guid: f81bfcef98ba1b24880a2ae184263742, type: 3}
    - time: 1.9833333
      value: {fileID: 21300000, guid: 25cf8685afe037b4297bf1660bbf85bd, type: 3}
    - time: 2
      value: {fileID: 21300000, guid: d181de9fe6491a34d841db5c68197fb0, type: 3}
    - time: 2.0166667
      value: {fileID: 21300000, guid: 5fcf1c3fbbb9227449b3ad4a160b9701, type: 3}
    - time: 2.05
      value: {fileID: 21300000, guid: d17bc563e34761e469a181fa28955d39, type: 3}
    - time: 2.0666666
      value: {fileID: 21300000, guid: dbf6e54c5a0e6084da5d26f281ce4d25, type: 3}
    - time: 2.0833333
      value: {fileID: 21300000, guid: 125bf892f7971ee4abdd14054be1b4e9, type: 3}
    - time: 2.1
      value: {fileID: 21300000, guid: d89772e6b68fa774ba2df41cc0cac3ad, type: 3}
    - time: 2.1333334
      value: {fileID: 21300000, guid: 5a9d11a68a1001f44b55c749ff2431d9, type: 3}
    - time: 2.15
      value: {fileID: 21300000, guid: 432659985e62f9840948008899c663b4, type: 3}
    - time: 2.1666667
      value: {fileID: 21300000, guid: 8270f5bfaf34de046b7bafd3be72b988, type: 3}
    - time: 2.1833334
      value: {fileID: 21300000, guid: 0ee3ce5b42dfbf2489b69b2efbaf531b, type: 3}
    - time: 2.2
      value: {fileID: 21300000, guid: 57a29dae33455cc4986d97c45b3f2471, type: 3}
    - time: 2.2333333
      value: {fileID: 21300000, guid: 3546f8691d66e4947a309869a227cbda, type: 3}
    - time: 2.25
      value: {fileID: 21300000, guid: fce7a58d47ce7b440a69cdf982cfe2d4, type: 3}
    - time: 2.2666667
      value: {fileID: 21300000, guid: ae1a0eaadd3d93941a4ea89a1c239645, type: 3}
    - time: 2.2833333
      value: {fileID: 21300000, guid: 52842b3297091854bae8c3f865c4068f, type: 3}
    - time: 2.3
      value: {fileID: 21300000, guid: 56bcde0dc5563bf4fb329b7a2f474981, type: 3}
    - time: 2.3333333
      value: {fileID: 21300000, guid: 863191d3b12a50a438ab718121d73953, type: 3}
    - time: 2.35
      value: {fileID: 21300000, guid: 4eb9364cd9468404ba59d5ec315b1898, type: 3}
    - time: 2.3666666
      value: {fileID: 21300000, guid: 94394ce96e0249c43851de69bae0835a, type: 3}
    - time: 2.3833334
      value: {fileID: 21300000, guid: 7cf900002c1d9064282f033b249b0a08, type: 3}
    - time: 2.4166667
      value: {fileID: 21300000, guid: d19db4af92bcb7c4e910d5383009a4f0, type: 3}
    - time: 2.4333334
      value: {fileID: 21300000, guid: b50cfa34e93a27a46ad358cd6e93e63a, type: 3}
    - time: 2.45
      value: {fileID: 21300000, guid: 274825e0a4704d34bbc480d490ea78f2, type: 3}
    - time: 2.4666667
      value: {fileID: 21300000, guid: 0a811409b9733784599098d5e2e39609, type: 3}
    - time: 2.4833333
      value: {fileID: 21300000, guid: dac9051f463d9374c917d039db25c38d, type: 3}
    - time: 2.5166667
      value: {fileID: 21300000, guid: 2947159c9589ef645af7e322bceea587, type: 3}
    - time: 2.5333333
      value: {fileID: 21300000, guid: ca5407843531cc54cb138a8fbe5ab409, type: 3}
    - time: 2.55
      value: {fileID: 21300000, guid: 714f518b6279f53468fbde42d95390df, type: 3}
    - time: 2.5666666
      value: {fileID: 21300000, guid: ed0c700e55f671d4d83e415c1703cf05, type: 3}
    - time: 2.5833333
      value: {fileID: 21300000, guid: 59d27e31bc414f84a92eae897a7c6612, type: 3}
    - time: 2.6166666
      value: {fileID: 21300000, guid: 95a613191121d184084754f81b7be70f, type: 3}
    - time: 2.6333334
      value: {fileID: 21300000, guid: 1c861a5660bfe6c4495435051bf2f1b4, type: 3}
    - time: 2.65
      value: {fileID: 21300000, guid: de13ef521fd03284aba13b048ba6203d, type: 3}
    - time: 2.6666667
      value: {fileID: 21300000, guid: b38ec2e42e51604418aafc35cf2385a9, type: 3}
    - time: 2.7
      value: {fileID: 21300000, guid: c4b5ceaaa7f4afe439a5b94a91229ea3, type: 3}
    - time: 2.7166667
      value: {fileID: 21300000, guid: d3c546024be392f4d938daed30f85724, type: 3}
    - time: 2.7333333
      value: {fileID: 21300000, guid: 144e9a7dbd68377429443dff576a5ef0, type: 3}
    - time: 2.75
      value: {fileID: 21300000, guid: c5e3423cc4b113d4188f6685828cdd60, type: 3}
    - time: 2.7666667
      value: {fileID: 21300000, guid: 3dcf9a8bd2baca24082a03554e425911, type: 3}
    - time: 2.8
      value: {fileID: 21300000, guid: 0c8b1c9e2c976574f9e1bbff1af7bc2f, type: 3}
    - time: 2.8166666
      value: {fileID: 21300000, guid: c91a0211bd0d2eb4a912f02ccff2502d, type: 3}
    - time: 2.8333333
      value: {fileID: 21300000, guid: c2b32988efc2dfa4a95157af0dbb9581, type: 3}
    - time: 2.85
      value: {fileID: 21300000, guid: ed26d55986ff51249ad5a019e483d762, type: 3}
    - time: 2.8666666
      value: {fileID: 21300000, guid: 6f929d5a26583554b999e1dfe7fc5e18, type: 3}
    - time: 2.9
      value: {fileID: 21300000, guid: f876f15e21a850e47934e1738fd29ec9, type: 3}
    - time: 2.9166667
      value: {fileID: 21300000, guid: b919de28a67ffe347920923156d0cee3, type: 3}
    - time: 2.9333334
      value: {fileID: 21300000, guid: 49039f2ed4695624fb7878dae87d1802, type: 3}
    - time: 2.95
      value: {fileID: 21300000, guid: ca35ebf769161c8439282d2266f341fd, type: 3}
    - time: 2.9833333
      value: {fileID: 21300000, guid: fe863496951116a4faaea2b504893bb8, type: 3}
    - time: 3
      value: {fileID: 21300000, guid: 5748246f5b05b7445a5ef9ba64fb22dd, type: 3}
    - time: 3.0166667
      value: {fileID: 21300000, guid: b0dcfdba38214ec439c8ce659a29a332, type: 3}
    attribute: m_Sprite
    path: 
    classID: 114
    script: {fileID: -765806418, guid: f70555f144d8491a825f0804e09c671c, type: 3}
  m_SampleRate: 60
  m_WrapMode: 0
  m_Bounds:
    m_Center: {x: 0, y: 0, z: 0}
    m_Extent: {x: 0, y: 0, z: 0}
  m_ClipBindingConstant:
    genericBindings:
    - serializedVersion: 2
      path: 0
      attribute: 2015549526
      script: {fileID: -765806418, guid: f70555f144d8491a825f0804e09c671c, type: 3}
      typeID: 114
      customType: 0
      isPPtrCurve: 1
    pptrCurveMapping:
    - {fileID: 21300000, guid: b7cb048d966ceb74b9de774f5f81e8ea, type: 3}
    - {fileID: 21300000, guid: e1fd380f3ca39264989d3b70fbe918e5, type: 3}
    - {fileID: 21300000, guid: f6a1a653692235c4d826071aef14f203, type: 3}
    - {fileID: 21300000, guid: e43d2969343610e4d978ecd95c30ec19, type: 3}
    - {fileID: 21300000, guid: 26b6ee0204b15e147942aa17a4a016cf, type: 3}
    - {fileID: 21300000, guid: 3dd328b4eddf39e498f2f156fc2ac9b0, type: 3}
    - {fileID: 21300000, guid: d0277150356f17a4b94632d2306aa436, type: 3}
    - {fileID: 21300000, guid: 861b1d53f0c30534592bb5e7db6f9891, type: 3}
    - {fileID: 21300000, guid: b28f3e9cd8819d64dbfebbb22c0f893b, type: 3}
    - {fileID: 21300000, guid: bd40e3c881267aa4baf119cfb464dd9d, type: 3}
    - {fileID: 21300000, guid: 4daea1eb23e6e2f4c9493ed37c6e140c, type: 3}
    - {fileID: 21300000, guid: 8edb4d9b497028d4c8ea863a82f4dd5c, type: 3}
    - {fileID: 21300000, guid: e80a58f66bc3e274786632eace8689be, type: 3}
    - {fileID: 21300000, guid: 4efcc33da5709c049bcd7ce01aa2c5dc, type: 3}
    - {fileID: 21300000, guid: 70d51c280b887e84e88f02ca40f549c7, type: 3}
    - {fileID: 21300000, guid: 001ccf4081446044080a7018350f92b8, type: 3}
    - {fileID: 21300000, guid: 441a8883c7e60ec4fa7daeb8e80f9d0c, type: 3}
    - {fileID: 21300000, guid: 2bb12382ef8fe4d4bbcb52a240a6a755, type: 3}
    - {fileID: 21300000, guid: 1c339f5ff2728ca458153bfa49e02a51, type: 3}
    - {fileID: 21300000, guid: e558a9bc5ca8e9c48b3ba585c926b0c0, type: 3}
    - {fileID: 21300000, guid: 76758ecf98de5a745b96296c716f5280, type: 3}
    - {fileID: 21300000, guid: 7ce347ec87d40e745b5e7a2a933daf4d, type: 3}
    - {fileID: 21300000, guid: 64286b08d15220d4780f458c3c6144a6, type: 3}
    - {fileID: 21300000, guid: ae6af4bb9be588d45a130fa4093629bc, type: 3}
    - {fileID: 21300000, guid: e2ce2aabdc18cdb4abafcdcd64cac5e0, type: 3}
    - {fileID: 21300000, guid: 740dbe2b33fd62047b578fcee58d9a0e, type: 3}
    - {fileID: 21300000, guid: e70b2d5a387a79e428dcea5f67592b80, type: 3}
    - {fileID: 21300000, guid: 5f208c4bc5ea90d47a1069800936934f, type: 3}
    - {fileID: 21300000, guid: 57275511c8d74fd4c803e03505e909b3, type: 3}
    - {fileID: 21300000, guid: 9c0214f3c212902478cd55dc5d22f846, type: 3}
    - {fileID: 21300000, guid: f943c0c3982f5c44b819565b2fe4ba7e, type: 3}
    - {fileID: 21300000, guid: 92ee6734ea67d8b4f94764ba44fd1b74, type: 3}
    - {fileID: 21300000, guid: 988d9e112e1e94e4bacf3338867125e7, type: 3}
    - {fileID: 21300000, guid: 0464558539a62e74ca8cba0d7da0993e, type: 3}
    - {fileID: 21300000, guid: 27c3052cf39f8e841b1c48eb2abd94e3, type: 3}
    - {fileID: 21300000, guid: e7ca78bfe4644c04eb07c3e8f60ba0b4, type: 3}
    - {fileID: 21300000, guid: f8c49ee73c43d8a4f86c59873b83504e, type: 3}
    - {fileID: 21300000, guid: d3e6d3873adf2984391c42b9219aa860, type: 3}
    - {fileID: 21300000, guid: b1d35a4d0d9e60944905643c8bc8aabb, type: 3}
    - {fileID: 21300000, guid: 9cb93133137ddee4cb716820a34adb64, type: 3}
    - {fileID: 21300000, guid: 0fcf1c5f79645b94cbc682cfc56d8010, type: 3}
    - {fileID: 21300000, guid: 8bbe6e84340462d4d8331a18fc659984, type: 3}
    - {fileID: 21300000, guid: 24a35f4c7c4cb8449b6a280fdd9ad2d1, type: 3}
    - {fileID: 21300000, guid: afa717ef69e17954691807ae831cd1b0, type: 3}
    - {fileID: 21300000, guid: ba64f940367b2e84da3c312bb1968f49, type: 3}
    - {fileID: 21300000, guid: 163ad7fc462d38340bbe42ab1f079f7b, type: 3}
    - {fileID: 21300000, guid: 9ce4bb40b45ae5546a5ebc0d949368f4, type: 3}
    - {fileID: 21300000, guid: d1adfac422f7eb94fa083fb57e105ef0, type: 3}
    - {fileID: 21300000, guid: b74def3971ed6b04dbeab7b15a8fc6f0, type: 3}
    - {fileID: 21300000, guid: c67623910acf06f4cb8e36d0642c86aa, type: 3}
    - {fileID: 21300000, guid: 05254d909e4621544baa0c8e5f0cf00d, type: 3}
    - {fileID: 21300000, guid: 0481f8006059ba647a5b2e4107f54b73, type: 3}
    - {fileID: 21300000, guid: ff1fe92593f6ddd4b9d9c42e058b4d40, type: 3}
    - {fileID: 21300000, guid: b8fd222d78977e64abe37430b261c464, type: 3}
    - {fileID: 21300000, guid: 73169d668a370494db4411ac33ea84cc, type: 3}
    - {fileID: 21300000, guid: c1572c4119ae0b84fbf6ac00fa767387, type: 3}
    - {fileID: 21300000, guid: 93d451b87b25a6e458a68b080b59ebe7, type: 3}
    - {fileID: 21300000, guid: c7d9a18fa5e31714b98bb7d64f79f41e, type: 3}
    - {fileID: 21300000, guid: db9e5291792eda846941e5382406bb36, type: 3}
    - {fileID: 21300000, guid: dc5bc236f03e4404eb086fe3e8d416ea, type: 3}
    - {fileID: 21300000, guid: 8af62bdd40f93be40af251d928dc6a62, type: 3}
    - {fileID: 21300000, guid: cb75c0e0b0807be42ac6eaf6bd8a4c0a, type: 3}
    - {fileID: 21300000, guid: 02945f92b00b74040adb96ede6fc39c9, type: 3}
    - {fileID: 21300000, guid: 7a4a182cdeab0a440b0969a05c0e9a66, type: 3}
    - {fileID: 21300000, guid: 9f5056b83893ecc4aa482eb877cdae9c, type: 3}
    - {fileID: 21300000, guid: 9ed1a98d7b845084fa367b3f3fa1be0e, type: 3}
    - {fileID: 21300000, guid: a4ccb5b84221d0144aec431d62217c53, type: 3}
    - {fileID: 21300000, guid: 1ee4bc9e2cc303e49938bbbd5fde02fd, type: 3}
    - {fileID: 21300000, guid: 4bac1531489bbee489ef60e043fa6f04, type: 3}
    - {fileID: 21300000, guid: 5964d529f2d2ef14281954e45f5a3bdd, type: 3}
    - {fileID: 21300000, guid: 80d4419a381a2174f97e612486a9d7a2, type: 3}
    - {fileID: 21300000, guid: 1b6cd5d7f88a56446ac39a375c16389f, type: 3}
    - {fileID: 21300000, guid: b12a1ccaffa3060479a489cd8948c9a2, type: 3}
    - {fileID: 21300000, guid: b07add4356fb6914a8d54035e4ba790a, type: 3}
    - {fileID: 21300000, guid: ed2dc71bed6392b40bd4f7c7496b48de, type: 3}
    - {fileID: 21300000, guid: b365ebf9eac3ae24a81361c57b41f919, type: 3}
    - {fileID: 21300000, guid: 33c59f705c8c6fb4e95ee1f483769a3d, type: 3}
    - {fileID: 21300000, guid: 0df91c32e705a2449a19c9bbb99524a8, type: 3}
    - {fileID: 21300000, guid: 85e151fd512f42249a9028e30277a9fc, type: 3}
    - {fileID: 21300000, guid: 4d6c04114bd59134f96fb9449a5df79e, type: 3}
    - {fileID: 21300000, guid: 114e2ea535210f048b71222e4d7d6032, type: 3}
    - {fileID: 21300000, guid: e9513dd498c66cb4a97f4567f640244b, type: 3}
    - {fileID: 21300000, guid: a18807a7f6071d14193dd42a2e96ddc5, type: 3}
    - {fileID: 21300000, guid: bd104355b2f113146a249176b770efbb, type: 3}
    - {fileID: 21300000, guid: 95e7577792b389b46ad9c3e2567af430, type: 3}
    - {fileID: 21300000, guid: 5f8aaa527756b8d4b9f97150935a6d5d, type: 3}
    - {fileID: 21300000, guid: 8b18c75a5c07f80438a226c49585000f, type: 3}
    - {fileID: 21300000, guid: 1d2d22eed209ba8499a8599e242f845c, type: 3}
    - {fileID: 21300000, guid: 32e326ae6d2f4ee48b6c3bee44eb7bed, type: 3}
    - {fileID: 21300000, guid: 7e4c502bd63ef6e4f820543bcd24638c, type: 3}
    - {fileID: 21300000, guid: f0867a463e574e048b3dedf3fcc68d73, type: 3}
    - {fileID: 21300000, guid: 8cd77943ed546994b928a0fdb2dddeee, type: 3}
    - {fileID: 21300000, guid: 4ed7b5d713ccbaf41824e64d05fe53e0, type: 3}
    - {fileID: 21300000, guid: 5c173eb5fa2df02468693ce0651f53f9, type: 3}
    - {fileID: 21300000, guid: 62df8c444d0b8aa409f144d8ca6fbb09, type: 3}
    - {fileID: 21300000, guid: 97a073615a3604e49b43712fd65c1af8, type: 3}
    - {fileID: 21300000, guid: f81bfcef98ba1b24880a2ae184263742, type: 3}
    - {fileID: 21300000, guid: 25cf8685afe037b4297bf1660bbf85bd, type: 3}
    - {fileID: 21300000, guid: d181de9fe6491a34d841db5c68197fb0, type: 3}
    - {fileID: 21300000, guid: 5fcf1c3fbbb9227449b3ad4a160b9701, type: 3}
    - {fileID: 21300000, guid: d17bc563e34761e469a181fa28955d39, type: 3}
    - {fileID: 21300000, guid: dbf6e54c5a0e6084da5d26f281ce4d25, type: 3}
    - {fileID: 21300000, guid: 125bf892f7971ee4abdd14054be1b4e9, type: 3}
    - {fileID: 21300000, guid: d89772e6b68fa774ba2df41cc0cac3ad, type: 3}
    - {fileID: 21300000, guid: 5a9d11a68a1001f44b55c749ff2431d9, type: 3}
    - {fileID: 21300000, guid: 432659985e62f9840948008899c663b4, type: 3}
    - {fileID: 21300000, guid: 8270f5bfaf34de046b7bafd3be72b988, type: 3}
    - {fileID: 21300000, guid: 0ee3ce5b42dfbf2489b69b2efbaf531b, type: 3}
    - {fileID: 21300000, guid: 57a29dae33455cc4986d97c45b3f2471, type: 3}
    - {fileID: 21300000, guid: 3546f8691d66e4947a309869a227cbda, type: 3}
    - {fileID: 21300000, guid: fce7a58d47ce7b440a69cdf982cfe2d4, type: 3}
    - {fileID: 21300000, guid: ae1a0eaadd3d93941a4ea89a1c239645, type: 3}
    - {fileID: 21300000, guid: 52842b3297091854bae8c3f865c4068f, type: 3}
    - {fileID: 21300000, guid: 56bcde0dc5563bf4fb329b7a2f474981, type: 3}
    - {fileID: 21300000, guid: 863191d3b12a50a438ab718121d73953, type: 3}
    - {fileID: 21300000, guid: 4eb9364cd9468404ba59d5ec315b1898, type: 3}
    - {fileID: 21300000, guid: 94394ce96e0249c43851de69bae0835a, type: 3}
    - {fileID: 21300000, guid: 7cf900002c1d9064282f033b249b0a08, type: 3}
    - {fileID: 21300000, guid: d19db4af92bcb7c4e910d5383009a4f0, type: 3}
    - {fileID: 21300000, guid: b50cfa34e93a27a46ad358cd6e93e63a, type: 3}
    - {fileID: 21300000, guid: 274825e0a4704d34bbc480d490ea78f2, type: 3}
    - {fileID: 21300000, guid: 0a811409b9733784599098d5e2e39609, type: 3}
    - {fileID: 21300000, guid: dac9051f463d9374c917d039db25c38d, type: 3}
    - {fileID: 21300000, guid: 2947159c9589ef645af7e322bceea587, type: 3}
    - {fileID: 21300000, guid: ca5407843531cc54cb138a8fbe5ab409, type: 3}
    - {fileID: 21300000, guid: 714f518b6279f53468fbde42d95390df, type: 3}
    - {fileID: 21300000, guid: ed0c700e55f671d4d83e415c1703cf05, type: 3}
    - {fileID: 21300000, guid: 59d27e31bc414f84a92eae897a7c6612, type: 3}
    - {fileID: 21300000, guid: 95a613191121d184084754f81b7be70f, type: 3}
    - {fileID: 21300000, guid: 1c861a5660bfe6c4495435051bf2f1b4, type: 3}
    - {fileID: 21300000, guid: de13ef521fd03284aba13b048ba6203d, type: 3}
    - {fileID: 21300000, guid: b38ec2e42e51604418aafc35cf2385a9, type: 3}
    - {fileID: 21300000, guid: c4b5ceaaa7f4afe439a5b94a91229ea3, type: 3}
    - {fileID: 21300000, guid: d3c546024be392f4d938daed30f85724, type: 3}
    - {fileID: 21300000, guid: 144e9a7dbd68377429443dff576a5ef0, type: 3}
    - {fileID: 21300000, guid: c5e3423cc4b113d4188f6685828cdd60, type: 3}
    - {fileID: 21300000, guid: 3dcf9a8bd2baca24082a03554e425911, type: 3}
    - {fileID: 21300000, guid: 0c8b1c9e2c976574f9e1bbff1af7bc2f, type: 3}
    - {fileID: 21300000, guid: c91a0211bd0d2eb4a912f02ccff2502d, type: 3}
    - {fileID: 21300000, guid: c2b32988efc2dfa4a95157af0dbb9581, type: 3}
    - {fileID: 21300000, guid: ed26d55986ff51249ad5a019e483d762, type: 3}
    - {fileID: 21300000, guid: 6f929d5a26583554b999e1dfe7fc5e18, type: 3}
    - {fileID: 21300000, guid: f876f15e21a850e47934e1738fd29ec9, type: 3}
    - {fileID: 21300000, guid: b919de28a67ffe347920923156d0cee3, type: 3}
    - {fileID: 21300000, guid: 49039f2ed4695624fb7878dae87d1802, type: 3}
    - {fileID: 21300000, guid: ca35ebf769161c8439282d2266f341fd, type: 3}
    - {fileID: 21300000, guid: fe863496951116a4faaea2b504893bb8, type: 3}
    - {fileID: 21300000, guid: 5748246f5b05b7445a5ef9ba64fb22dd, type: 3}
    - {fileID: 21300000, guid: b0dcfdba38214ec439c8ce659a29a332, type: 3}
  m_AnimationClipSettings:
    serializedVersion: 2
    m_AdditiveReferencePoseClip: {fileID: 0}
    m_AdditiveReferencePoseTime: 0
    m_StartTime: 0
    m_StopTime: 3.0333333
    m_OrientationOffsetY: 0
    m_Level: 0
    m_CycleOffset: 0
    m_HasAdditiveReferencePose: 0
    m_LoopTime: 0
    m_LoopBlend: 0
    m_LoopBlendOrientation: 0
    m_LoopBlendPositionY: 0
    m_LoopBlendPositionXZ: 0
    m_KeepOriginalOrientation: 0
    m_KeepOriginalPositionY: 1
    m_KeepOriginalPositionXZ: 0
    m_HeightFromFeet: 0
    m_Mirror: 0
  m_EditorCurves: []
  m_EulerEditorCurves: []
  m_HasGenericRootTransform: 0
  m_HasMotionFloatCurves: 0
  m_GenerateMotionCurves: 0
  m_Events: []
