%YAML 1.1
%TAG !u! tag:unity3d.com,2011:
--- !u!114 &11400000
MonoBehaviour:
  m_ObjectHideFlags: 0
  m_PrefabParentObject: {fileID: 0}
  m_PrefabInternal: {fileID: 0}
  m_GameObject: {fileID: 0}
  m_Enabled: 1
  m_EditorHideFlags: 0
  m_Script: {fileID: 11500000, guid: 55a16a3a15bb1ed43862ffd87075f857, type: 3}
  m_Name: Helheim
  m_EditorClassIdentifier: 
  Image: {fileID: 21300000, guid: 52b1836ed99d9b0418d5119c09cafd39, type: 3}
  Levels:
  - {fileID: 11400000, guid: a34ad3975d2fbf144923a62f2d76a487, type: 2}
  - {fileID: 11400000, guid: 634121ed442d9474080dfaad8db5b08f, type: 2}
  - {fileID: 11400000, guid: 73f59af5633b2e745b51023997beed23, type: 2}
  Songs:
  - {fileID: 8300000, guid: 5164426a769d4e34998197f7cd9ee67a, type: 3}
  - {fileID: 8300000, guid: 6ffecb2feedf0004e977e2b7e615703d, type: 3}
  - {fileID: 8300000, guid: d2925d0dfdb1ada4597b00b7f033a438, type: 3}
