%YAML 1.1
%TAG !u! tag:unity3d.com,2011:
--- !u!114 &11400000
MonoBehaviour:
  m_ObjectHideFlags: 0
  m_PrefabParentObject: {fileID: 0}
  m_PrefabInternal: {fileID: 0}
  m_GameObject: {fileID: 0}
  m_Enabled: 1
  m_EditorHideFlags: 0
  m_Script: {fileID: 11500000, guid: 55a16a3a15bb1ed43862ffd87075f857, type: 3}
  m_Name: Midgard
  m_EditorClassIdentifier: 
  Image: {fileID: 21300000, guid: ab0e79912fa7e1241897f83d58d5a97f, type: 3}
  Levels:
  - {fileID: 11400000, guid: 76ff8cd1514848740873013fea03c573, type: 2}
  - {fileID: 11400000, guid: 0208ac2c19fc3e146a584a741ce40e7b, type: 2}
  - {fileID: 11400000, guid: 8f5930281f01fec47b278e86cd4760bd, type: 2}
  Songs:
  - {fileID: 8300000, guid: a5fc561e3578bd3408a06e65dc1649c5, type: 3}
  - {fileID: 8300000, guid: c7ad43daa9f306747b4486c8023c766d, type: 3}
  - {fileID: 8300000, guid: 829287fdf47702743ae7bac2f3f91119, type: 3}
