%YAML 1.1
%TAG !u! tag:unity3d.com,2011:
--- !u!114 &11400000
MonoBehaviour:
  m_ObjectHideFlags: 0
  m_PrefabParentObject: {fileID: 0}
  m_PrefabInternal: {fileID: 0}
  m_GameObject: {fileID: 0}
  m_Enabled: 1
  m_EditorHideFlags: 0
  m_Script: {fileID: 11500000, guid: 55a16a3a15bb1ed43862ffd87075f857, type: 3}
  m_Name: Muspelheim
  m_EditorClassIdentifier: 
  Image: {fileID: 21300000, guid: a9f5d7072e9b4494589d7de0cc076e57, type: 3}
  Levels:
  - {fileID: 11400000, guid: a56328afa6d5f9e40b41a66f17507e0d, type: 2}
  - {fileID: 11400000, guid: 65d9dfc72b514774cb2a1d30de75c099, type: 2}
  - {fileID: 11400000, guid: c542ff1236279ec46b3a4775b6092043, type: 2}
  Songs:
  - {fileID: 8300000, guid: 7dc37d5dfe92fd44da1623f223d574b6, type: 3}
  - {fileID: 8300000, guid: 41921042e3b2c99498bf6564ec7087c9, type: 3}
  - {fileID: 8300000, guid: 7646870331175fa4fa9832f6b2105600, type: 3}
