%YAML 1.1
%TAG !u! tag:unity3d.com,2011:
--- !u!1045 &1
EditorBuildSettings:
  m_ObjectHideFlags: 0
  serializedVersion: 2
  m_Scenes:
  - enabled: 1
    path: Assets/Scenes/Splash.unity
    guid: d520eb11f9b69eb47b30a0e18a3e67ab
  - enabled: 1
    path: Assets/Scenes/Menu.unity
    guid: a8707643699f0de44a7aee635c4db2dd
  - enabled: 1
    path: Assets/Scenes/Game.unity
    guid: 2195f6ff2403c214c832501658040cfd
  - enabled: 1
    path: Assets/Scenes/Credits.unity
    guid: b79d2084ba92221498832f0a6757f907
