%YAML 1.1
%TAG !u! tag:unity3d.com,2011:
--- !u!78 &1
TagManager:
  serializedVersion: 2
  tags:
  - Runestone
  layers:
  - Default
  - TransparentFX
  - Ignore Raycast
  - 
  - Water
  - UI
  - 
  - 
  - Player
  - Enemies
  - EnemyDamageSources
  - PlayerWeapon
  - AITrigger
  - PlayerDamageSources
  - NeutralDamageSources
  - BodyParts
  - PopupUI
  - LifeBar
  - LifeParticle
  - PowerBar
  - PowerParticle
  - Share
  - 
  - 
  - 
  - 
  - 
  - 
  - 
  - 
  - 
  - 
  m_SortingLayers:
  - name: Default
    uniqueID: 0
    locked: 0
  - name: Far Far Far Back
    uniqueID: 2527918275
    locked: 0
  - name: Far Far Back
    uniqueID: 321440077
    locked: 0
  - name: Far Back
    uniqueID: 1032017719
    locked: 0
  - name: Back
    uniqueID: 3682484039
    locked: 0
  - name: Solidblocks
    uniqueID: 3700157479
    locked: 0
  - name: Platforms
    uniqueID: 4039613325
    locked: 0
  - name: Player
    uniqueID: 2071295775
    locked: 0
  - name: Enemy Blocks
    uniqueID: 1764705993
    locked: 0
  - name: Front Deco
    uniqueID: 2234494661
    locked: 0
  - name: Front Front Deco
    uniqueID: 566271957
    locked: 0
  - name: UI
    uniqueID: 4208362065
    locked: 0
