%YAML 1.1
%TAG !u! tag:unity3d.com,2011:
--- !u!114 &11400000
MonoBehaviour:
  m_ObjectHideFlags: 0
  m_PrefabParentObject: {fileID: 0}
  m_PrefabInternal: {fileID: 0}
  m_GameObject: {fileID: 0}
  m_Enabled: 1
  m_EditorHideFlags: 0
  m_Script: {fileID: 11500000, guid: 0089be2942abe394993647e4965aa39c, type: 3}
  m_Name: Level 3
  m_EditorClassIdentifier: 
  LevelName: Midgard III
  LevelSubName: Father of the Wolf
  LevelNr: 3
  LevelID: 3
  Image: {fileID: 21300000, guid: fff06e192055d0d4c8929f0d018c282f, type: 3}
  Backgrounds:
  - {fileID: 1488745413649356, guid: fb5cceff8497d71469d98d470fa233d6, type: 2}
  - {fileID: 1091285819160308, guid: 59b4597f6bcadde46bd83858c849bd6e, type: 2}
  ParallaxPrefabs:
  - {fileID: 1795563813796066, guid: fcf01eb347ae21848b8c4fec6991c6b0, type: 2}
  - {fileID: 1646070004928350, guid: 7b5b71b6debefd641af37eba276986f5, type: 2}
  - {fileID: 1736063064367290, guid: 557ef9beec1599048b6abc189b727856, type: 2}
  LevelData: {fileID: 4900000, guid: 15da1b3cad44bc2448fd435b3d678291, type: 3}
