%YAML 1.1
%TAG !u! tag:unity3d.com,2011:
--- !u!114 &11400000
MonoBehaviour:
  m_ObjectHideFlags: 0
  m_PrefabParentObject: {fileID: 0}
  m_PrefabInternal: {fileID: 0}
  m_GameObject: {fileID: 0}
  m_Enabled: 1
  m_EditorHideFlags: 0
  m_Script: {fileID: 11500000, guid: 0089be2942abe394993647e4965aa39c, type: 3}
  m_Name: Level 9
  m_EditorClassIdentifier: 
  LevelName: Niflheim III
  LevelSubName: First Kill
  LevelNr: 3
  LevelID: 9
  Image: {fileID: 21300000, guid: 6bef64704a02ad940b9f23409ce8b233, type: 3}
  Backgrounds:
  - {fileID: 1521616701710404, guid: 9525e131661a90648940fed4356ce452, type: 2}
  ParallaxPrefabs:
  - {fileID: 1470777005463464, guid: 73c3a065122cdca4d853674c36105af2, type: 2}
  - {fileID: 1589699578910340, guid: 329b58cecf1c26940a84fca17dd06f4b, type: 2}
  - {fileID: 1478217997932778, guid: 9b00dc35ec157fa4fa4b4f1301d67c1c, type: 2}
  LevelData: {fileID: 4900000, guid: 4fb221123ded0ce4b834aeb637035d39, type: 3}
  RequireFullVersion: 1
