%YAML 1.1
%TAG !u! tag:unity3d.com,2011:
--- !u!114 &11400000
MonoBehaviour:
  m_ObjectHideFlags: 0
  m_PrefabParentObject: {fileID: 0}
  m_PrefabInternal: {fileID: 0}
  m_GameObject: {fileID: 0}
  m_Enabled: 1
  m_EditorHideFlags: 0
  m_Script: {fileID: 11500000, guid: 0089be2942abe394993647e4965aa39c, type: 3}
  m_Name: Level 11
  m_EditorClassIdentifier: 
  LevelName: Helheim II
  LevelSubName: Deceiver of the Gods
  LevelNr: 2
  LevelID: 11
  Image: {fileID: 21300000, guid: 454b53d5420dec14486ec9ed5b133920, type: 3}
  Backgrounds:
  - {fileID: 1317981237899420, guid: 0364f3d582c5a8f44ae4db5ffbf182f0, type: 2}
  ParallaxPrefabs:
  - {fileID: 1204665641224746, guid: 421f4f47c913c50419e64845124cd791, type: 2}
  - {fileID: 1025935378026584, guid: 772accb8b97e2294dabddcebccb6f200, type: 2}
  - {fileID: 1979479925082538, guid: e9de233ad7c92154db9b238b12388be8, type: 2}
  LevelData: {fileID: 4900000, guid: 15e579037b8669e40af9b4c00b0e16a7, type: 3}
  RequireFullVersion: 1
