%YAML 1.1
%TAG !u! tag:unity3d.com,2011:
--- !u!114 &11400000
MonoBehaviour:
  m_ObjectHideFlags: 0
  m_PrefabParentObject: {fileID: 0}
  m_PrefabInternal: {fileID: 0}
  m_GameObject: {fileID: 0}
  m_Enabled: 1
  m_EditorHideFlags: 0
  m_Script: {fileID: 11500000, guid: 0089be2942abe394993647e4965aa39c, type: 3}
  m_Name: Level 4
  m_EditorClassIdentifier: 
  LevelName: Muspelheim I
  LevelSubName: Death in Fire
  LevelNr: 1
  LevelID: 4
  Image: {fileID: 21300000, guid: 7766ec803cb3ff84b80a9fc31ac711d0, type: 3}
  Backgrounds:
  - {fileID: 1497765533213026, guid: 89e7216dbbfee47459414a14a483e169, type: 2}
  ParallaxPrefabs:
  - {fileID: 1417882447378374, guid: 94e6c25ee0cda7d418faae5cb779f958, type: 2}
  - {fileID: 1420403995629836, guid: 239309be555050e4683616fc1060cfac, type: 2}
  - {fileID: 1633483185348624, guid: 665118f473ae3924fb4bec7768951d23, type: 2}
  - {fileID: 1921068004370574, guid: eccbdc04b00a01d448802cded4f68216, type: 2}
  - {fileID: 1398204143037462, guid: 63976c7e6211df549b4b78f1d3356676, type: 2}
  - {fileID: 1576103395707248, guid: c9f066d5033044643a91d52571cb186f, type: 2}
  - {fileID: 1514262414191334, guid: de123ef2239aa3444b8c18647f9ee06b, type: 2}
  - {fileID: 1818841748093752, guid: 702a1d91d92aeba4894db73acf56ee64, type: 2}
  - {fileID: 1349823352933976, guid: ab2b1cb63e060fc4b886a1723ac16774, type: 2}
  - {fileID: 1135747378087662, guid: d005c2d3a5f5eb54e9862cc9d5d56267, type: 2}
  LevelData: {fileID: 4900000, guid: 467501ab6850cdf4d94d0147a2a1cd9f, type: 3}
  RequireFullVersion: 1
