%YAML 1.1
%TAG !u! tag:unity3d.com,2011:
--- !u!221 &22100000
AnimatorOverrideController:
  m_ObjectHideFlags: 0
  m_PrefabParentObject: {fileID: 0}
  m_PrefabInternal: {fileID: 0}
  m_Name: Skeleton
  m_Controller: {fileID: 9100000, guid: c8bec8357e72bbb40b65b4562889f883, type: 2}
  m_Clips:
  - m_OriginalClip: {fileID: 7400000, guid: 50ef1bb36f2eed9469c03d1cda33600a, type: 2}
    m_OverrideClip: {fileID: 7400000, guid: dea023be11a45ae4ab9068b4ccc3a2a6, type: 2}
  - m_OriginalClip: {fileID: 7400000, guid: 8c65e5edfd96a0140a1e29e28d79bfda, type: 2}
    m_OverrideClip: {fileID: 7400000, guid: b4fd1eb33baa0a04a87f4bc6ac65fd1a, type: 2}
  - m_OriginalClip: {fileID: 7400000, guid: a18d2f1cc63eaea41a3db1037442ae28, type: 2}
    m_OverrideClip: {fileID: 7400000, guid: 6dca50fa4e986cb4c9ed6de2aa2f58e6, type: 2}
  - m_OriginalClip: {fileID: 7400000, guid: e4fe47e4ba8d7784ca6c4ff951f276ab, type: 2}
    m_OverrideClip: {fileID: 7400000, guid: e6af7b3577eac0f449f15cbf925de228, type: 2}
  - m_OriginalClip: {fileID: 7400000, guid: b28c1761b556d4d4d8502e4486bd63d0, type: 2}
    m_OverrideClip: {fileID: 7400000, guid: a46db9b10d562d54fa1a8519e7169226, type: 2}
